<svg xmlns="http://www.w3.org/2000/svg" width="18.322" height="24.541" viewBox="0 0 18.322 24.541">
  <g id="_104490_apple_icon" data-name="104490_apple_icon" transform="translate(1.719)">
    <path id="Path_9514" data-name="Path 9514" d="M23.618,22.765a5.1,5.1,0,0,1,2.429-4.286,5.256,5.256,0,0,0-4.115-2.229c-1.752-.178-3.419,1.032-4.308,1.032s-2.26-1.006-3.712-.98a5.506,5.506,0,0,0-4.655,2.822c-1.984,3.442-.508,8.544,1.426,11.338.945,1.366,2.073,2.9,3.552,2.846,1.425-.056,1.963-.922,3.686-.922s2.207.922,3.715.893c1.533-.028,2.5-1.392,3.442-2.763a12.443,12.443,0,0,0,1.559-3.2A4.971,4.971,0,0,1,23.618,22.765Z" transform="translate(-10.035 -8.768)"/>
    <path id="Path_9515" data-name="Path 9515" d="M31.588,7.966A4.963,4.963,0,0,0,32.76,4.374a5.042,5.042,0,0,0-3.315,1.7,4.719,4.719,0,0,0-1.194,3.482A4.177,4.177,0,0,0,31.588,7.966Z" transform="translate(-20.781 -4.374)"/>
  </g>
</svg>
